1,HeaderFlag,char,no,5,1,5
2,InterfaceActionFlag,char,no,1,6,6
3,OrderLineNumber,char,no,5,7,11
4,OrderDetailSysId,int,no,10,12,21
5,ExternOrderKey,char,no,20,22,41
6,ExternLineNo,char,no,10,42,51
7,Sku,char,no,20,52,71
8,StorerKey,char,no,15,72,86
9,ManufacturerSku,char,no,20,87,106
10,RetailSku,char,no,20,107,126
11,AltSku,char,no,20,127,146
12,OriginalQty,int,no,10,147,156
13,OpenQty,int,no,10,157,166
14,ShippedQty,int,no,10,167,176
15,AdjustedQty,int,no,10,177,186
16,QtyPreAllocated,int,no,10,187,196
17,QtyAllocated,int,no,10,197,206
18,QtyPicked,int,no,10,207,216
19,UOM,char,no,10,217,226
20,PackKey,char,no,10,227,236
21,PickCode,char,no,10,237,246
22,CartonGroup,char,no,10,247,256
23,Lot,char,no,10,257,266
24,ID,char,no,18,267,284
25,Facility,char,no,5,285,289
26,Status,char,no,10,290,299
27,UnitPrice,float,no,16,300,315
28,Tax01,float,no,16,316,331
29,Tax02,float,no,16,332,347
30,ExtendedPrice,float,no,16,348,363
31,Reserved,char,no,37,364,400
32,UpdateSource,char,no,10,401,410
33,Lottable01,char,no,18,411,428
34,Lottable02,char,no,18,429,446
35,Lottable03,char,no,18,447,464
36,Lottable04,datetime,no,14,465,478
37,Lottable05,datetime,no,14,479,492
38,EffectiveDate,datetime,no,14,493,506
39,TariffKey,char,no,10,507,516
40,FreeGoodQty,int,no,10,517,526
41,GrossWeight,float,yes,16,527,542
42,WgtUnit,char,no,5,543,547
43,Capacity,float,yes,16,548,563
44,CubeUnit,char,no,5,564,568
45,LoadKey,char,no,10,569,578
46,MBOLKey,char,no,10,579,588
47,QtyToProcess,int,no,10,589,598
48,MinShelfLife,int,no,10,599,608
49,UserDefine01,char,no,18,609,626
50,UserDefine02,char,no,18,627,644
51,UserDefine03,char,no,18,645,662
52,UserDefine04,char,no,18,663,680
53,UserDefine05,char,no,18,681,698
54,UserDefine06,char,no,18,699,716
55,UserDefine07,char,no,18,717,734
56,UserDefine08,char,no,18,735,752
57,UserDefine09,char,no,18,753,770
58,POkey,varchar,no,20,771,790
59,ExternPOKey,varchar,no,20,791,810
60,OrgExternLineNo,char,no,10,811,820
61,UserDefine10,char,no,18,821,838