1,HeaderFlag,char,no,5,1,5
2,InterfaceActionFlag,char,no,1,6,6
3,OrderKey,char,no,10,7,16
4,StorerKey,char,no,15,17,31
5,ExternOrderKey,char,no,20,32,51
6,Reserved,char,no,10,52,61
7,OrderDate,datetime,no,14,62,75
8,DeliveryDate,datetime,no,14,76,89
9,Priority,char,no,10,90,99
10,ConsigneeKey,char,no,15,100,114
11,C_contact1,char,no,30,115,144
12,C_Contact2,char,no,30,145,174
13,C_Company,char,no,45,175,219
14,C_Address1,char,no,45,220,264
15,C_Address2,char,no,45,265,309
16,C_Address3,char,no,45,310,354
17,C_Address4,char,no,45,355,399
18,C_City,char,no,45,400,444
19,C_State,char,no,2,445,446
20,C_Zip,char,no,18,447,464
21,C_Country,char,no,30,465,494
22,C_ISOCntryCode,char,no,10,495,504
23,C_Phone1,char,no,18,505,522
24,C_Phone2,char,no,18,523,540
25,C_Fax1,char,no,18,541,558
26,C_Fax2,char,no,18,559,576
27,C_vat,char,no,18,577,594
28,BuyerPO,char,no,20,595,614
29,BillToKey,char,no,15,615,629
30,B_contact1,char,no,30,630,659
31,B_Contact2,char,no,30,660,689
32,B_Company,char,no,45,690,734
33,B_Address1,char,no,45,735,779
34,B_Address2,char,no,45,780,824
35,B_Address3,char,no,45,825,869
36,B_Address4,char,no,45,870,914
37,B_City,char,no,45,915,959
38,B_State,char,no,2,960,961
39,B_Zip,char,no,18,962,979
40,B_Country,char,no,30,980,1009
41,B_ISOCntryCode,char,no,10,1010,1019
42,B_Phone1,char,no,18,1020,1037
43,B_Phone2,char,no,18,1038,1055
44,B_Fax1,char,no,18,1056,1073
45,B_Fax2,char,no,18,1074,1091
46,B_Vat,char,no,18,1092,1109
47,IncoTerm,char,no,10,1110,1119
48,PmtTerm,char,no,10,1120,1129
49,OpenQty,int,no,10,1130,1139
50,Status,char,no,10,1140,1149
51,DischargePlace,char,no,30,1150,1179
52,DeliveryPlace,char,no,30,1180,1209
53,IntermodalVehicle,char,no,30,1210,1239
54,CountryOfOrigin,char,no,30,1240,1269
55,CountryDestination,char,no,30,1270,1299
56,UpdateSource,char,no,10,1300,1309
57,Type,char,no,10,1310,1319
58,OrderGroup,char,no,20,1320,1339
59,Door,char,no,10,1340,1349
60,Route,char,no,10,1350,1359
61,Stop,char,no,10,1360,1369
62,Notes,text,no,125,1370,1494
63,EffectiveDate,datetime,no,14,1495,1508
64,ContainerType,char,no,20,1509,1528
65,ContainerQty,int,no,10,1529,1538
66,BilledContainerQty,int,no,10,1539,1548
67,SOStatus,char,no,10,1549,1558
68,MBOLKey,char,no,10,1559,1568
69,InvoiceNo,char,no,10,1569,1578
70,InvoiceAmount,float,no,16,1579,1594
71,Salesman,char,no,30,1595,1624
72,GrossWeight,float,no,16,1625,1640
73,WgtUnit,char,no,5,1641,1645
74,Capacity,float,no,16,1646,1661
75,CubeUnit,char,no,5,1662,1666
76,PrintFlag,char,no,1,1667,1667
77,LoadKey,char,no,10,1668,1677
78,Rdd,char,no,30,1678,1707
79,Notes2,text,no,125,1708,1832
80,SequenceNo,int,no,10,1833,1842
81,Rds,char,no,1,1843,1843
82,SectionKey,char,no,10,1844,1853
83,Facility,char,no,5,1854,1858
84,PrintDocDate,datetime,no,14,1859,1872
85,LabelPrice,char,no,5,1873,1877
86,POKey,char,no,10,1878,1887
87,ExternPOKey,char,no,20,1888,1907
88,XDockFlag,char,no,1,1908,1908
89,UserDefine01,char,no,20,1909,1928
90,UserDefine02,char,no,20,1929,1948
91,UserDefine03,char,no,20,1949,1968
92,UserDefine04,char,no,20,1969,1988
93,UserDefine05,char,no,20,1989,2008
94,UserDefine06,datetime,no,14,2009,2022
95,UserDefine07,datetime,no,14,2023,2036
96,UserDefine08,char,no,10,2037,2046
97,UserDefine09,char,no,10,2047,2056
98,UserDefine10,char,no,10,2057,2066
99,Issued,char,no,1,2067,2067
100,DeliveryNote,char,no,10,2068,2077
101,PODCust,datetime,no,14,2078,2091
102,PODArrive,datetime,no,14,2092,2105
103,PODReject,datetime,no,14,2106,2119
104,PODUser,char,no,18,2120,2137
105,xdockpokey,varchar,no,20,2138,2157
106,SpecialHandling,char,no,1,2158,2158
107,RoutingTool,varchar,no,30,2159,2188
108,MarkforKey,char,no,15,2189,2203
109,M_Contact1,char,no,30,2204,2233
110,M_Contact2,char,no,30,2234,2263
111,M_Company,char,no,45,2264,2308
112,M_Address1,char,no,45,2309,2353
113,M_Address2,char,no,45,2354,2398
114,M_Address3,char,no,45,2399,2443
115,M_Address4,char,no,45,2444,2488
116,M_City,char,no,45,2489,2533
117,M_State,char,no,2,2534,2535
118,M_Zip,char,no,18,2536,2553
119,M_Country,char,no,30,2554,2583
120,M_ISOCntryCode,char,no,10,2584,2593
121,M_Phone1,char,no,18,2594,2611
122,M_Phone2,char,no,18,2612,2629
123,M_Fax1,char,no,18,2630,2647
124,M_Fax2,char,no,18,2648,2665
125,M_vat,char,no,18,2666,2683
126,C_State_Long,char,no,45,2684,2728
127,B_State_Long,char,no,45,2729,2773
128,M_State_Long,char,no,45,2774,2818
129,Notes_Long,text,no,215,2819,3033
130,Notes2_Long,text,no,215,3034,3248
131,ShipperKey,Char,no,15,3249,3263