Email Address,First Name,Last Name,,,UTM Source,UTM Medium,UTM Campaign,UTM Content,UTM Term,MEMBER_RATING,OPTIN_TIME,OPTIN_IP,CONFIRM_TIME,CONFIRM_IP,LATITUDE,LONGITUDE,GMTOFF,DSTOFF,TIMEZONE,CC,REGION,LAST_CHANGED,LEID,EUID,NOTES
thap@bonseyjaden.com,Thap,Nguyen Vu,,,direct,none,none,none,none,2,2/10/2018 3:20,,2/10/2018 3:20,117.2.142.111,,,,,,,,7/17/2018 2:54,85464679,a014362347,
vgcs@mdhc.tk,,,,,,,,,,2,10/26/2017 10:54,,10/26/2017 10:54,116.110.120.171,,,,,,,,10/26/2017 10:54,85465731,d9de375ed7,
kimtn129@gmail.com,,,,,direct,none,none,none,none,2,10/26/2017 22:11,,10/26/2017 22:11,117.2.142.111,,,,,,,,7/17/2018 2:54,85502303,50ed2e83a7,
zpcs@themail.krd.ag,,,,,,,,,,2,10/28/2017 5:26,,10/28/2017 5:26,101.96.117.122,,,,,,,,10/28/2017 5:26,85530495,105700d169,
thapnv@gmail.com,,,,,direct,none,none,none,none,2,11/2/2017 5:43,,11/2/2017 5:43,117.2.142.111,,,,,,,,7/17/2018 2:54,85649103,d3ebe50604,
ken@inventionmarketinggroup.com.my,,,,,,,,,,2,11/2/2017 21:58,,11/2/2017 21:58,117.2.142.111,,,,,,,,11/2/2017 21:58,85671071,db56c37d8e,
megatazlan1992@gmail.com,,,,,,,,,,2,11/3/2017 0:27,,11/3/2017 0:27,117.2.142.111,,,,,,,,11/3/2017 0:27,85672067,9cc711756e,
Mervin@bonseyjaden.com,,,,,direct,none,none,none,none,2,11/6/2017 8:52,,11/6/2017 8:52,128.199.201.237,,,,,,,,7/17/2018 2:54,85768047,5fd21bd1bc,
hungvo@bonseyjaden.com,,,,,direct,none,none,none,none,2,11/6/2017 10:10,,11/6/2017 10:10,116.98.172.84,,,,,,,,7/17/2018 2:54,85774735,e4681e8a70,
kelvinnes@gmail.com,,,,,,,,,,2,11/7/2017 5:08,,11/7/2017 5:08,118.69.73.254,,,,,,,,11/7/2017 5:08,85793259,7acb5e7723,
ybdao@bonseyjaden.com,,,,,direct,none,none,none,none,2,11/8/2017 3:40,,11/8/2017 3:40,128.199.201.237,,,,,,,,7/17/2018 2:54,85869423,f18a4e4a94,
phanmy.vnu@gmail.com,,,,,direct,none,none,none,none,2,11/8/2017 22:43,,11/8/2017 22:43,128.199.201.237,,,,,,,,7/17/2018 2:54,85895315,759e89bf21,
kimtn129+4@gmail.com,,,,,,,,,,2,12/3/2017 17:46,,12/3/2017 17:46,116.105.197.84,,,,,,,,12/3/2017 17:46,87638467,ccdf105d90,
davidbhtan@pacificasiawidegroup.com,,,,,,,,,,2,12/27/2017 4:05,,12/27/2017 4:05,128.199.201.237,,,,,,,,12/27/2017 4:05,90143131,271fb4fa05,
ngoclan@bonseyjaden.com,,,,,direct,none,none,none,none,2,1/3/2018 4:36,,1/3/2018 4:36,128.199.201.237,,,,,,,,7/17/2018 2:54,90368259,f02350202e,
vothanhhung.cntt3@gmail.com,,,,,direct,none,none,none,none,2,1/3/2018 9:35,,1/3/2018 9:35,128.199.201.237,,,,,,,,7/17/2018 2:56,90375599,ccce0bdc64,
ngoclan7194@yahoo.com.vn,,,,,direct,none,none,none,none,2,1/4/2018 2:05,,1/4/2018 2:05,128.199.201.237,,,,,,,,7/17/2018 2:54,90393059,1bf58bf094,
JASMINELIM.92@GMAIL.COM,,,,,,,,,,2,1/5/2018 5:07,,1/5/2018 5:07,128.199.201.237,,,,,,,,1/5/2018 5:07,90449163,9b573b6e34,
nguyenngoclan714@gmail.com,,,,,direct,none,none,none,none,2,1/7/2018 23:54,,1/7/2018 23:54,128.199.201.237,,,,,,,,7/17/2018 2:54,90497571,4776d48e76,
emily@bonseyjaden.com,,,,,direct,none,none,none,none,2,1/8/2018 4:12,,1/8/2018 4:12,128.199.201.237,,,,,,,,7/17/2018 2:54,90501647,7d48914a98,
saw.ashley@bonseyjaden.com,,,,,,,,,,2,1/8/2018 4:18,,1/8/2018 4:18,128.199.201.237,,,,,,,,1/8/2018 4:18,90501659,ea6a46a0dd,
ng@gmail.com,,,,,,,,,,2,1/8/2018 23:16,,1/8/2018 23:16,128.199.201.237,,,,,,,,1/8/2018 23:16,90591199,92d876defe,
kimtn129+10@gmail.com,,,,,,,,,,2,1/9/2018 21:00,,1/9/2018 21:00,128.199.201.237,,,,,,,,1/9/2018 21:00,90909655,6d6c7591c5,
skrt@ucupdong.ml,,,,,,,,,,2,1/9/2018 21:01,,1/9/2018 21:01,128.199.201.237,,,,,,,,1/9/2018 21:01,90909671,38301dafdf,
eileen@bonseyjaden.com,,,,,,,,,,2,1/10/2018 2:04,,1/10/2018 2:04,128.199.201.237,,,,,,,,1/10/2018 2:04,90939147,6e9308c9ad,
SIANNGOH@GMAIL.COM,,,,,,,,,,2,1/14/2018 23:01,,1/14/2018 23:01,128.199.138.112,,,,,,,,1/14/2018 23:01,91126843,14c061cf57,
mazen@bonseyjaden.com,,,,,direct,none,none,none,none,2,1/17/2018 22:29,,1/17/2018 22:29,128.199.138.112,,,,,,,,7/17/2018 2:56,91270467,1c161e7639,
chuan@bonseyjaden.com,,,,,direct,none,none,none,none,2,1/19/2018 5:49,,1/19/2018 5:49,128.199.138.112,,,,,,,,7/17/2018 2:54,91419403,821fbbf2ef,
kimtn129+002@gmail.com,kim,thi,,,,,,,,2,1/26/2018 2:59,,1/26/2018 2:59,117.2.142.111,,,,,,,,1/26/2018 2:59,91947227,c304345ad8,
aaa@gmail.com,Nguyen,Vu Thap,,,direct,none,none,none,none,2,2/7/2018 6:09,,2/7/2018 6:09,117.2.142.111,,,,,,,,7/17/2018 2:54,92900383,a3025465d0,
aa@gmail.com,Nguyen,Vu Thap,,,,,,,,2,2/7/2018 6:30,,2/7/2018 6:30,117.2.142.111,,,,,,,,2/7/2018 6:30,92900495,485944810c,
thaptest@gmail.com,Thap,Thap,,,,,,,,2,3/8/2018 5:13,,3/8/2018 5:13,117.2.142.111,,,,,,,,3/8/2018 5:13,93008347,29e3c21aad,
thaptest33@gmail.com,Guest,Guest,,,,,,,,2,2/10/2018 2:39,,2/10/2018 2:39,117.2.142.111,,,,,,,,2/10/2018 2:39,93008359,4efb180cb1,
dahsgdask@gmail.com,,,,,,,,,,2,2/10/2018 2:05,,2/10/2018 2:05,117.2.142.111,,,,,,,,2/10/2018 2:05,93008603,a44e23ea11,
bjtech@bonseyjaden.com,Johnny,Doe,,,,,,,,2,2/28/2018 22:25,,2/28/2018 22:25,128.199.201.237,,,,,,,,2/28/2018 22:25,93811679,2f8860aef5,
devahmadmohammadi@gmail.com,Ahmad,Mohammadi,,,,,,,,2,3/12/2018 22:48,,3/12/2018 22:48,117.2.142.111,,,,,,,,3/12/2018 22:48,94100823,d646e1501d,
vtre@mailfs.com,Nguyen,Vu Thap,,,,,,,,2,3/27/2018 22:40,,3/27/2018 22:40,117.2.142.111,,,,,,,,3/27/2018 22:40,94544083,dcab364c1b,
thien@bonseyjaden.com,Thien,Hoang,,,direct,none,none,none,none,2,4/24/2018 23:07,,4/24/2018 23:07,128.199.201.237,,,,,,,,7/17/2018 2:54,95623359,aeebcf4656,
thap1111@bonseyjaden.com,Nguyen,Vu Thap,,,,,,,,2,4/25/2018 6:07,,4/25/2018 6:07,117.2.142.111,,,,,,,,4/25/2018 6:07,95627939,96871fbb0a,
thap2@bonseyjaden.com,Nguyen,Vu Thap,,,direct,none,none,none,none,2,4/25/2018 6:10,,4/25/2018 6:10,117.2.142.111,,,,,,,,7/17/2018 2:54,95627951,5352b90631,
thap3333@bonseyjaden.com,Nguyen,Vu Thap,,,,,,,,2,4/25/2018 6:12,,4/25/2018 6:12,117.2.142.111,,,,,,,,4/25/2018 6:12,95627955,b2df2cc6c8,
thap33@bonseyjaden.com,Nguyen,Vu Thap,,,,,,,,2,4/25/2018 6:22,,4/25/2018 6:22,117.2.142.111,,,,,,,,4/25/2018 6:22,95628039,f6a56251fb,
thap@5555bonseyjaden.com,Nguyen,Vu Thap,,,,,,,,2,4/25/2018 7:10,,4/25/2018 7:10,117.2.142.111,,,,,,,,4/25/2018 7:10,95628183,54fc9d4df7,
thap55@bonseyjaden.com,Nguyen,Vu Thap,,,,,,,,2,4/25/2018 7:16,,4/25/2018 7:16,117.2.142.111,,,,,,,,4/25/2018 7:16,95628227,c894d85735,
kimtn129+001@gmail.com,kim,thi,,,,,,,,2,5/24/2018 2:48,,5/24/2018 2:48,117.2.142.111,,,,,,,,5/24/2018 2:48,96984611,ac1bdbfbf4,
asasd@email.com,Nguyen,Vu Thap,,,,,,,,2,6/12/2018 2:54,,6/12/2018 2:54,117.2.142.111,,,,,,,,6/12/2018 2:54,97412111,5525435f5c,
thap222@bonseyjaden.com,Nguyen,Vu Thap,,,,,,,,2,6/18/2018 5:49,,6/18/2018 5:49,117.2.142.111,,,,,,,,6/18/2018 5:49,97505423,fbb86726fa,
phu@bonseyjaden.com,Phu,PT,,,direct,none,none,none,none,2,6/18/2018 9:19,,6/18/2018 9:19,42.112.230.61,,,,,,,,7/17/2018 2:56,97506519,14f055e75f,
thap2222@bonseyjaden.com,Nguyen,Vu Thap,,,,,,,,2,6/20/2018 4:42,,6/20/2018 4:42,117.2.142.111,,,,,,,,6/20/2018 4:42,97560815,b3b5268abf,
thap22222@bonseyjaden.com,Nguyen,Vu Thap,,,,,,,,2,6/20/2018 4:55,,6/20/2018 4:55,117.2.142.111,,,,,,,,6/20/2018 4:55,97560891,a842ac2c62,
thap555@bonseyjaden.com,Nguyen,Vu Thap,,,,,,,,2,6/22/2018 0:45,,6/22/2018 0:45,117.2.142.111,,,,,,,,6/22/2018 0:45,97598331,e84e9fdbac,
thap5555@bonseyjaden.com,Nguyen,Vu Thap,,,,,,,,2,6/22/2018 0:46,,6/22/2018 0:46,117.2.142.111,,,,,,,,6/22/2018 0:46,97598335,e5ec76be4e,
phuptqn@gmail.com,Phu,Phan Thanh,,,direct,none,none,none,none,2,6/25/2018 0:06,,6/25/2018 0:06,117.2.142.111,,,,,,,,7/17/2018 2:54,97951887,56714f732e,
ngoclan+14@bonseyjaden.com,Lan,Nguyen,,,direct,none,none,none,none,2,7/13/2018 4:47,,7/13/2018 4:47,128.199.201.237,,,,,,,,7/17/2018 2:54,98378051,fad7887b3a,
phu+001@bonseyjaden.com,phu+001,,,,mandrill,email,_mys_activateaccount,S2U_html_activateaccount,_newusersignup_web,2,7/16/2018 3:24,,7/16/2018 3:24,117.2.142.111,,,,,,,,7/16/2018 3:24,98415755,e893852e7a,
