{
  "MYS": [
    {
      "type": "specificProduct",
      "description": "Discount for a specific product if the already buy a subscription",
      "productSKU": "H3",
      "discount": "50",
      "isActiveMobile": false,
      "isActiveWeb": false
    },
    {
      "type": "specificProduct",
      "description": "Discount for a specific product if the already buy a subscription",
      "productSKU": "H1",
      "discount": "30",
      "isActiveMobile": false,
      "isActiveWeb": false
    },
    {
      "type": "cartRule",
      "description": "If user has ala carte item + subscription in plan, user is entitled to 10% off all ala carte items",
      "discount": "10",
      "isActiveMobile": false,
      "isActiveWeb": false
    },
    {
      "type": "subscriptionRule",
      "description": "Take some off for user at first subscriber",
      "discount": "20",
      "isActiveMobile": true,
      "isActiveWeb": false
    },
    {
      "type": "decemberPromo",
      "description": "Get free product X when pruchase product Y",
      "productIds": "[15, 4, 3]",
      "freeProductIds": "[2]",
      "freeProductSlugs": ["men's_premium_handle_0"],
      "isActiveMobile": false,
      "isActiveWeb": true
    },
    {
      "type": "tbcPromo",
      "description": "Get free product X when pruchase product Y",
      "productIds": "[5]",
      "freeProductIds": "[15, 9]",
      "freeProductSlugs": ["mens_6blade_cartridge_pack_22", "shaving_soap_18"],
      "isActiveMobile": false,
      "isActiveWeb": true
    }
  ],
  "SGP": [
    {
      "type": "specificProduct",
      "description": "Discount for a specific product if the already buy a subscription",
      "productSKU": "H3",
      "discount": "50",
      "isActiveMobile": false,
      "isActiveWeb": false
    },
    {
      "type": "cartRule",
      "description": "If user has ala carte item + subscription in plan, user is entitled to 10% off all ala carte items",
      "discount": "10",
      "isActiveMobile": false,
      "isActiveWeb": false
    },
    {
      "type": "subscriptionRule",
      "description": "Take some off for user at first subscriber",
      "discount": "20",
      "isActiveMobile": true,
      "isActiveWeb": false
    },
    {
      "type": "decemberPromo",
      "description": "Get free product X when pruchase product Y",
      "productIds": "[26, 21, 19]",
      "freeProductIds": "[14]",
      "freeProductSlugs": ["men's_premium_handle_0"],
      "isActiveMobile": false,
      "isActiveWeb": true
    },
    {
      "type": "tbcPromo",
      "description": "Get free product X when pruchase product Y",
      "productIds": "[16]",
      "freeProductIds": "[26, 22]",
      "freeProductSlugs": ["mens_6blade_cartridge_pack_22", "shaving_soap_18"],
      "isActiveMobile": false,
      "isActiveWeb": true
    }
  ]
}