<?xml version="1.0" encoding="utf-8"?>
<!-- Generator: Adobe Illustrator 19.0.1, SVG Export Plug-In . SVG Version: 6.00 Build 0)  -->
<svg version="1.1" xmlns="http://www.w3.org/2000/svg" xmlns:xlink="http://www.w3.org/1999/xlink" x="0px" y="0px"
	 viewBox="0 0 100 100" style="enable-background:new 0 0 100 100;" xml:space="preserve">
<style type="text/css">
	.st0{fill:#FFFFFF;}
	.st1{fill:none;}
	.st2{fill:#3D6E9D;}
</style>
<g id="Layer_2">
</g>
<g id="Layer_1">
	<rect x="767.4" y="-2072.5" class="st0" width="31.5" height="31.5"/>
	<g>
		<polygon points="781.5,-2061.8 780.8,-2059.9 802.7,-2059.9 803.4,-2061.8 		"/>
		<polygon points="782.5,-2065.9 775.1,-2045.6 777.1,-2045.6 784.4,-2065.9 		"/>
		<polygon points="784.8,-2057.7 781.8,-2049.9 783.7,-2049.9 786.7,-2057.7 		"/>
		<polygon points="790,-2057.7 787,-2049.9 789,-2049.9 791.9,-2057.7 		"/>
		<polygon points="795.2,-2057.7 792.3,-2049.9 794.2,-2049.9 797.2,-2057.7 		"/>
		<polygon points="777.2,-2044.6 776.2,-2041.8 779.7,-2041.8 780.8,-2044.6 		"/>
		<polygon points="791,-2044.6 789.9,-2041.8 793.5,-2041.8 794.5,-2044.6 		"/>
		<polygon points="777.7,-2065.9 777,-2064 783.4,-2064 784.1,-2065.9 		"/>
		<polygon points="780.3,-2051.8 779.5,-2049.9 799.1,-2049.9 799.8,-2051.8 		"/>
		<polygon points="776.2,-2047.5 775.5,-2045.6 796.3,-2045.6 797,-2047.5 		"/>
		<polygon points="801.8,-2061.8 797.5,-2049.9 799.5,-2049.9 803.8,-2061.8 		"/>
	</g>
	<rect x="786.6" y="-2113.6" width="1" height="1"/>
	<g>
		<g>
			<path class="st1" d="M49.3,32.8v1.8c-4,1.1-6.5,3.9-6.5,7.6c0,6.4,5.5,8.1,9.1,9.2c3.9,1.2,4.7,1.7,4.7,3.2
				c0,1.6-2.7,2.1-4.3,2.1c-2,0-4.1-0.9-5.3-2.1c-0.2-0.2-0.4-0.3-0.7-0.3c-0.3,0-0.5,0.1-0.7,0.3l-0.6,0.5c0.3,0.2,0.6,0.5,0.9,0.8
				c1.3,1.3,2,3,2,4.8c0,0.4,0,0.8-0.1,1.1c0.5,0.2,0.9,0.3,1.4,0.4v2.2c0,0.5,0.4,1,1,1h3.9c0.5,0,1-0.4,1-1v-2.1
				c4.5-0.8,7.3-3.7,7.3-7.6c0.1-6.1-5.3-7.7-8.8-8.8c-4.1-1.3-5-1.9-5-3.6c0-1.8,2.8-2.2,4.5-2.2c1.6,0,3.5,0.5,4.6,1.2
				c0.4,0.3,1,0.2,1.3-0.3l2.1-3.2c0.3-0.4,0.2-1-0.3-1.3c-1.5-1-3.6-1.7-5.7-2v-1.5"/>
		</g>
		<g>
			<path class="st1" d="M55.1,32.8v-0.5c0-0.5-0.4-1-1-1h-3.9c-0.5,0-1,0.4-1,1v0.5"/>
		</g>
		<g>
			<path class="st2" d="M80.3,32.8c0-1.5-0.1-3-0.2-4.6L52.5,16.5L24.9,28.1c-0.7,10.1,0.4,18.5,2.4,25.4c0.5-0.6,0.9-1.1,1.3-1.6
				c0-0.1,0-0.2,0.1-0.3c0.1-0.7,0.3-1.5,0.6-2.4c0.3-1.2,0.9-2.1,1.7-2.9l0,0c0.1-0.1,0.2-0.1,0.2-0.2c0.9-0.7,1.9-1.1,3-1.1
				c1.3,0,2.5,0.3,3.6,0.8c1.3,0.6,2.2,1.6,2.9,2.8c0.6,1.1,0.9,2.5,0.9,4.3c0,0.2,0,0.5,0,0.8c1.3,0.1,2.5,0.5,3.6,1.2l0.6-0.5
				c0.2-0.2,0.4-0.3,0.7-0.3c0.3,0,0.5,0.1,0.7,0.3c1.2,1.3,3.4,2.1,5.3,2.1c1.6,0,4.3-0.4,4.3-2.1c0-1.5-0.8-2-4.7-3.2
				c-3.6-1.1-9.1-2.8-9.1-9.2c0-3.7,2.5-6.5,6.5-7.6v-1.8v-0.5c0-0.5,0.4-1,1-1h3.9c0.5,0,1,0.4,1,1v0.5v1.5c2.1,0.3,4.1,1,5.7,2
				c0.4,0.3,0.6,0.9,0.3,1.3L59,40.8c-0.3,0.4-0.9,0.6-1.3,0.3c-1.1-0.7-3-1.2-4.6-1.2c-1.7,0-4.5,0.5-4.5,2.2c0,1.7,0.9,2.4,5,3.6
				c3.5,1.1,8.9,2.7,8.8,8.8c0,3.8-2.8,6.8-7.3,7.6v2.1c0,0.5-0.4,1-1,1h-3.9c-0.5,0-1-0.4-1-1V62c-0.5-0.1-0.9-0.2-1.4-0.4
				c-0.1,0.7-0.3,1.4-0.6,2c0,0.2,0,0.5,0,0.7c0,1-0.2,2-0.6,2.9c0,0.1,0,0.2,0,0.2c0,1.4-0.3,2.7-1,3.8c-0.2,1.9-0.9,3.5-2.2,4.7
				c-0.4,0.4-0.8,0.7-1.3,1c5.5,4.8,10.2,6.5,10.2,6.5S81,72.7,80.3,32.8z"/>
		</g>
		<g>
			<path class="st0" d="M52.5,81.2l-0.2-0.1c-1.2-0.6-3.6-1.8-6.4-4l0.4-0.6c2.7,2,4.9,3.2,6.2,3.8c2.1-1,7.1-3.7,12.1-9.2
				c3.8-4.2,6.9-9.1,9-14.7c2.7-7,4-15,3.8-23.7c0-0.9,0-1.8-0.1-2.7L52.5,19.6L27.6,30.1c-0.3,5.6,0,10.9,0.9,15.8L27.7,46
				c-0.9-5.1-1.2-10.5-0.8-16.2l0-0.2l0.2-0.1l25.4-10.7l25.6,10.8l0,0.2c0.1,1,0.1,2,0.1,3c0.2,8.8-1.2,16.9-3.9,24
				c-2.2,5.6-5.3,10.6-9.2,14.9c-5.2,5.7-10.4,8.5-12.5,9.4L52.5,81.2z"/>
		</g>
		<g>
			<path class="st2" d="M45.5,60.4c0-1.2-0.4-2.2-1.3-3c-0.3-0.3-0.7-0.6-1-0.8c-0.6-0.3-1.3-0.5-2-0.5h-3c0.5-1.1,0.8-2.2,0.8-3.2
				c0-1.3-0.2-2.4-0.6-3.1c-0.4-0.8-1-1.3-1.7-1.7c-0.8-0.4-1.6-0.5-2.5-0.5c-0.6,0-1.1,0.2-1.5,0.6c-0.5,0.5-0.8,1.1-1,1.8
				c-0.2,0.6-0.3,1.2-0.4,1.8c0,0.1-0.1,0.2-0.1,0.4c-0.1,0.7-0.3,1.2-0.6,1.4c-0.5,0.6-1.1,1.3-1.8,2.2c-0.2,0.2-0.3,0.4-0.5,0.6
				c-0.9,1.1-1.5,1.7-1.8,2h-4.6c-0.6,0-1.1,0.2-1.5,0.6c-0.4,0.4-0.6,0.9-0.6,1.5v10.8c0,0.6,0.2,1.1,0.6,1.5
				c0.4,0.4,0.9,0.6,1.5,0.6h4.8c0.2,0,1,0.2,2.3,0.7c0.8,0.3,1.5,0.5,2.2,0.7c0.5,0.1,1,0.3,1.4,0.4c1,0.3,2.1,0.4,3.2,0.4H38
				c0.8,0,1.6-0.1,2.3-0.4c0.6-0.2,1.1-0.5,1.6-1c1-0.9,1.4-2.1,1.4-3.7c0.7-0.9,1-1.9,1-3c0-0.2,0-0.5-0.1-0.7
				c0.4-0.8,0.6-1.6,0.6-2.4c0-0.4-0.1-0.8-0.2-1.2C45.3,62.4,45.5,61.5,45.5,60.4C45.5,60.5,45.5,60.5,45.5,60.4z M43,61.8
				c-0.2,0.5-0.5,0.8-0.9,0.8c0.2,0.2,0.3,0.5,0.4,0.8c0.1,0.3,0.2,0.7,0.2,0.9c0,0.8-0.3,1.4-0.9,2c0.2,0.4,0.3,0.7,0.3,1.2
				c0,0.4-0.1,0.8-0.3,1.2c-0.2,0.4-0.5,0.7-0.8,0.9c0.1,0.3,0.1,0.7,0.1,0.9c0,1.7-0.9,2.6-2.6,2.8c-0.2,0-0.4,0-0.6,0h-2
				c-1.2,0-2.8-0.3-4.6-0.9c-0.4-0.1-0.7-0.2-1.1-0.4c-0.1,0-0.2-0.1-0.5-0.2c-0.3-0.1-0.5-0.2-0.6-0.2c-0.1,0-0.3-0.1-0.6-0.2
				c-0.3-0.1-0.5-0.1-0.6-0.2c-0.2,0-0.3-0.1-0.6-0.1c-0.2,0-0.4-0.1-0.5-0.1h-0.5V60.5h0.5c0.2,0,0.4-0.1,0.6-0.2
				c0.2-0.1,0.4-0.3,0.7-0.5c0.2-0.2,0.4-0.4,0.6-0.6c0.2-0.2,0.3-0.4,0.5-0.6c0,0,0.1-0.1,0.1-0.2c0.2-0.3,0.4-0.5,0.6-0.7
				c0.1-0.2,0.3-0.4,0.5-0.7c0.2-0.3,0.3-0.4,0.4-0.5c0.2-0.2,0.3-0.4,0.5-0.6c0.4-0.5,0.7-0.8,0.8-1c0.5-0.5,0.8-1.1,1-1.8
				c0.2-0.7,0.4-1.5,0.5-2.1c0.1-0.7,0.3-1.1,0.6-1.4c1.1,0,1.8,0.3,2.2,0.8c0.4,0.5,0.5,1.3,0.5,2.4c0,0.7-0.3,1.6-0.8,2.7
				c-0.5,1.1-0.8,2-0.8,2.7h5.9c0.6,0,1.1,0.2,1.5,0.6c0.4,0.4,0.7,0.9,0.7,1.5C43.4,60.9,43.3,61.3,43,61.8z"/>
		</g>
	</g>
</g>
</svg>
